Sensitivity to Selection Criteria – Output Generation — ssc_output • sensitivityselectioncriteria
…
ssc_process_example
#> $summary_values
#> # A tibble: 28 × 7
#>    site  cohort_id cohort_characteristic fact_group fact_summary cohort_total_pt
#>    <chr> <chr>     <chr>                 <chr>             <dbl>           <int>
#>  1 comb… Sample A… median_age_cohort_en… Cohort De…       -12.0               12
#>  2 comb… Sample A… median_age_first_vis… Cohort De…         1.46              12
#>  3 comb… Sample A… median_all condition… Clinical …         0                 12
#>  4 comb… Sample A… median_fu             Cohort De…         0                 12
#>  5 comb… Sample A… median_outpatient vi… Utilizati…         0                 12
#>  6 comb… base_coh… median_age_cohort_en… Cohort De…       -12.0               12
#>  7 comb… base_coh… median_age_first_vis… Cohort De…         1.46              12
#>  8 comb… base_coh… median_all condition… Clinical …         0                 12
#>  9 comb… base_coh… median_fu             Cohort De…         0                 12
#> 10 comb… base_coh… median_outpatient vi… Utilizati…         0                 12
#> # ℹ 18 more rows
#> # ℹ 1 more variable: output_function <chr>
…
